{
    "openapi": "3.0.0",
    "info": {
        "title": "Vehicle API",
        "version": "0.1"
    },
    "paths": {
        "/api/login": {
            "post": {
                "tags": [
                    "User"
                ],
                "summary": "Login User",
                "operationId": "login",
                "parameters": [
                    {
                        "name": "email",
                        "in": "query",
                        "schema": {
                            "type": "string"
                        }
                    },
                    {
                        "name": "password",
                        "in": "query",
                        "schema": {
                            "type": "string",
                            "format": "password"
                        }
                    }
                ],
                "responses": {
                    "200": {
                        "description": "Success",
                        "content": {
                            "application/json": {}
                        }
                    },
                    "403": {
                        "description": "Forbidden",
                        "content": {
                            "application/json": {}
                        }
                    },
                    "422": {
                        "description": "Validation Error",
                        "content": {
                            "application/json": {}
                        }
                    }
                }
            }
        },
        "/api/profile": {
            "get": {
                "tags": [
                    "User"
                ],
                "summary": "User Login",
                "operationId": "tokenme",
                "responses": {
                    "200": {
                        "description": "Success",
                        "content": {
                            "application/json": {}
                        }
                    },
                    "403": {
                        "description": "Forbidden",
                        "content": {
                            "application/json": {}
                        }
                    },
                    "422": {
                        "description": "Validation Error",
                        "content": {
                            "application/json": {}
                        }
                    }
                },
                "security": [
                    {
                        "bearer_token": []
                    }
                ]
            }
        },
        "/api/logout": {
            "post": {
                "tags": [
                    "User"
                ],
                "summary": "User Logout",
                "operationId": "logout",
                "responses": {
                    "200": {
                        "description": "Success",
                        "content": {
                            "application/json": {}
                        }
                    },
                    "403": {
                        "description": "Forbidden",
                        "content": {
                            "application/json": {}
                        }
                    },
                    "422": {
                        "description": "Validation Error",
                        "content": {
                            "application/json": {}
                        }
                    }
                },
                "security": [
                    {
                        "bearer_token": []
                    }
                ]
            }
        },
        "/api/refresh": {
            "get": {
                "tags": [
                    "User"
                ],
                "summary": "Refresh Token Login",
                "operationId": "refresh",
                "responses": {
                    "200": {
                        "description": "Success",
                        "content": {
                            "application/json": {}
                        }
                    },
                    "403": {
                        "description": "Forbidden",
                        "content": {
                            "application/json": {}
                        }
                    },
                    "422": {
                        "description": "Validation Error",
                        "content": {
                            "application/json": {}
                        }
                    }
                },
                "security": [
                    {
                        "bearer_token": []
                    }
                ]
            }
        },
        "/api/cars": {
            "get": {
                "tags": [
                    "Car"
                ],
                "summary": "List Car",
                "operationId": "cars",
                "responses": {
                    "200": {
                        "description": "Success",
                        "content": {
                            "application/json": {}
                        }
                    },
                    "403": {
                        "description": "Forbidden",
                        "content": {
                            "application/json": {}
                        }
                    },
                    "422": {
                        "description": "Validation Error",
                        "content": {
                            "application/json": {}
                        }
                    }
                },
                "security": [
                    {
                        "bearer_token": []
                    }
                ]
            },
            "post": {
                "tags": [
                    "Car"
                ],
                "summary": "Add Car",
                "operationId": "store",
                "requestBody": {
                    "required": true,
                    "content": {
                        "application/json": {
                            "schema": {
                                "required": [
                                    "year",
                                    "color",
                                    "price",
                                    "machine",
                                    "capacity",
                                    "type"
                                ],
                                "properties": {
                                    "year": {
                                        "type": "integer",
                                        "format": "integer",
                                        "example": "2020"
                                    },
                                    "color": {
                                        "type": "string",
                                        "format": "string",
                                        "example": "black"
                                    },
                                    "price": {
                                        "type": "integer",
                                        "format": "integer",
                                        "example": "200000000"
                                    },
                                    "machine": {
                                        "type": "string",
                                        "format": "string",
                                        "example": "v8"
                                    },
                                    "capacity": {
                                        "type": "integer",
                                        "format": "integer",
                                        "example": "4"
                                    },
                                    "type": {
                                        "type": "string",
                                        "format": "string",
                                        "example": "SUV"
                                    },
                                    "status": {
                                        "type": "boolean",
                                        "format": "boolean",
                                        "example": "true"
                                    }
                                },
                                "type": "object"
                            }
                        }
                    }
                },
                "responses": {
                    "200": {
                        "description": "Success",
                        "content": {
                            "application/json": {}
                        }
                    },
                    "201": {
                        "description": "created",
                        "content": {
                            "application/json": {}
                        }
                    },
                    "403": {
                        "description": "Forbidden",
                        "content": {
                            "application/json": {}
                        }
                    },
                    "422": {
                        "description": "Validation Error",
                        "content": {
                            "application/json": {}
                        }
                    }
                },
                "security": [
                    {
                        "bearer_token": []
                    }
                ]
            }
        },
        "/api/cars/{id}": {
            "delete": {
                "tags": [
                    "Car"
                ],
                "summary": "Delete Car",
                "operationId": "delete",
                "parameters": [
                    {
                        "name": "id",
                        "in": "path",
                        "schema": {
                            "type": "string"
                        }
                    }
                ],
                "responses": {
                    "200": {
                        "description": "Success",
                        "content": {
                            "application/json": {}
                        }
                    },
                    "201": {
                        "description": "created",
                        "content": {
                            "application/json": {}
                        }
                    },
                    "403": {
                        "description": "Forbidden",
                        "content": {
                            "application/json": {}
                        }
                    },
                    "422": {
                        "description": "Validation Error",
                        "content": {
                            "application/json": {}
                        }
                    }
                },
                "security": [
                    {
                        "bearer_token": []
                    }
                ]
            },
            "patch": {
                "tags": [
                    "Car"
                ],
                "summary": "Update Car",
                "operationId": "update",
                "parameters": [
                    {
                        "name": "id",
                        "in": "path",
                        "schema": {
                            "type": "string"
                        }
                    }
                ],
                "requestBody": {
                    "required": true,
                    "content": {
                        "application/json": {
                            "schema": {
                                "required": [
                                    "year",
                                    "color",
                                    "price",
                                    "machine",
                                    "capacity",
                                    "type"
                                ],
                                "properties": {
                                    "year": {
                                        "type": "integer",
                                        "format": "integer",
                                        "example": "2020"
                                    },
                                    "color": {
                                        "type": "string",
                                        "format": "string",
                                        "example": "black"
                                    },
                                    "price": {
                                        "type": "integer",
                                        "format": "integer",
                                        "example": "200000000"
                                    },
                                    "machine": {
                                        "type": "string",
                                        "format": "string",
                                        "example": "v8"
                                    },
                                    "capacity": {
                                        "type": "integer",
                                        "format": "integer",
                                        "example": "4"
                                    },
                                    "type": {
                                        "type": "string",
                                        "format": "string",
                                        "example": "SUV"
                                    },
                                    "status": {
                                        "type": "boolean",
                                        "format": "boolean",
                                        "example": "true"
                                    }
                                },
                                "type": "object"
                            }
                        }
                    }
                },
                "responses": {
                    "200": {
                        "description": "Success",
                        "content": {
                            "application/json": {}
                        }
                    },
                    "201": {
                        "description": "created",
                        "content": {
                            "application/json": {}
                        }
                    },
                    "403": {
                        "description": "Forbidden",
                        "content": {
                            "application/json": {}
                        }
                    },
                    "422": {
                        "description": "Validation Error",
                        "content": {
                            "application/json": {}
                        }
                    }
                },
                "security": [
                    {
                        "bearer_token": []
                    }
                ]
            }
        },
        "/api/bikes": {
            "get": {
                "tags": [
                    "Bike"
                ],
                "summary": "List bike",
                "operationId": "bikes",
                "responses": {
                    "200": {
                        "description": "Success",
                        "content": {
                            "application/json": {}
                        }
                    },
                    "403": {
                        "description": "Forbidden",
                        "content": {
                            "application/json": {}
                        }
                    },
                    "422": {
                        "description": "Validation Error",
                        "content": {
                            "application/json": {}
                        }
                    }
                },
                "security": [
                    {
                        "bearer_token": []
                    }
                ]
            },
            "post": {
                "tags": [
                    "Bike"
                ],
                "summary": "Add Bike",
                "operationId": "storebike",
                "requestBody": {
                    "required": true,
                    "content": {
                        "application/json": {
                            "schema": {
                                "required": [
                                    "year",
                                    "color",
                                    "price",
                                    "machine",
                                    "transmisi",
                                    "suspension"
                                ],
                                "properties": {
                                    "year": {
                                        "type": "integer",
                                        "format": "integer",
                                        "example": "2020"
                                    },
                                    "color": {
                                        "type": "string",
                                        "format": "string",
                                        "example": "black"
                                    },
                                    "price": {
                                        "type": "integer",
                                        "format": "integer",
                                        "example": "200000000"
                                    },
                                    "machine": {
                                        "type": "string",
                                        "format": "string",
                                        "example": "v8"
                                    },
                                    "transmisi": {
                                        "type": "string",
                                        "format": "string",
                                        "example": "manual"
                                    },
                                    "suspension": {
                                        "type": "string",
                                        "format": "string",
                                        "example": "air suspension"
                                    },
                                    "status": {
                                        "type": "boolean",
                                        "format": "boolean",
                                        "example": "true"
                                    }
                                },
                                "type": "object"
                            }
                        }
                    }
                },
                "responses": {
                    "200": {
                        "description": "Success",
                        "content": {
                            "application/json": {}
                        }
                    },
                    "201": {
                        "description": "created",
                        "content": {
                            "application/json": {}
                        }
                    },
                    "403": {
                        "description": "Forbidden",
                        "content": {
                            "application/json": {}
                        }
                    },
                    "422": {
                        "description": "Validation Error",
                        "content": {
                            "application/json": {}
                        }
                    }
                },
                "security": [
                    {
                        "bearer_token": []
                    }
                ]
            }
        },
        "/api/bikes/{id}": {
            "delete": {
                "tags": [
                    "Bike"
                ],
                "summary": "Delete Bike",
                "operationId": "deletebike",
                "parameters": [
                    {
                        "name": "id",
                        "in": "path",
                        "schema": {
                            "type": "string"
                        }
                    }
                ],
                "responses": {
                    "200": {
                        "description": "Success",
                        "content": {
                            "application/json": {}
                        }
                    },
                    "201": {
                        "description": "created",
                        "content": {
                            "application/json": {}
                        }
                    },
                    "403": {
                        "description": "Forbidden",
                        "content": {
                            "application/json": {}
                        }
                    },
                    "422": {
                        "description": "Validation Error",
                        "content": {
                            "application/json": {}
                        }
                    }
                },
                "security": [
                    {
                        "bearer_token": []
                    }
                ]
            },
            "patch": {
                "tags": [
                    "Bike"
                ],
                "summary": "Update Bike",
                "operationId": "updatebike",
                "parameters": [
                    {
                        "name": "id",
                        "in": "path",
                        "schema": {
                            "type": "string"
                        }
                    }
                ],
                "requestBody": {
                    "required": true,
                    "content": {
                        "application/json": {
                            "schema": {
                                "required": [
                                    "year",
                                    "color",
                                    "price",
                                    "machine",
                                    "transmisi",
                                    "suspension"
                                ],
                                "properties": {
                                    "year": {
                                        "type": "integer",
                                        "format": "integer",
                                        "example": "2020"
                                    },
                                    "color": {
                                        "type": "string",
                                        "format": "string",
                                        "example": "black"
                                    },
                                    "price": {
                                        "type": "integer",
                                        "format": "integer",
                                        "example": "200000000"
                                    },
                                    "machine": {
                                        "type": "string",
                                        "format": "string",
                                        "example": "v8"
                                    },
                                    "transmisi": {
                                        "type": "string",
                                        "format": "string",
                                        "example": "manual"
                                    },
                                    "suspension": {
                                        "type": "string",
                                        "format": "string",
                                        "example": "air suspension"
                                    },
                                    "status": {
                                        "type": "boolean",
                                        "format": "boolean",
                                        "example": "true"
                                    }
                                },
                                "type": "object"
                            }
                        }
                    }
                },
                "responses": {
                    "200": {
                        "description": "Success",
                        "content": {
                            "application/json": {}
                        }
                    },
                    "201": {
                        "description": "created",
                        "content": {
                            "application/json": {}
                        }
                    },
                    "403": {
                        "description": "Forbidden",
                        "content": {
                            "application/json": {}
                        }
                    },
                    "422": {
                        "description": "Validation Error",
                        "content": {
                            "application/json": {}
                        }
                    }
                },
                "security": [
                    {
                        "bearer_token": []
                    }
                ]
            }
        },
        "/api/order": {
            "post": {
                "tags": [
                    "Vehicle"
                ],
                "summary": "Order Vehicle",
                "description": "Order Vehile, type(car,motorbike)",
                "operationId": "order",
                "requestBody": {
                    "required": true,
                    "content": {
                        "application/json": {
                            "schema": {
                                "required": [
                                    "type",
                                    "vehicle_id"
                                ],
                                "properties": {
                                    "type": {
                                        "type": "string",
                                        "format": "string",
                                        "example": "car"
                                    },
                                    "vehicle_id": {
                                        "type": "string",
                                        "format": "string",
                                        "example": ""
                                    }
                                },
                                "type": "object"
                            }
                        }
                    }
                },
                "responses": {
                    "200": {
                        "description": "Success",
                        "content": {
                            "application/json": {}
                        }
                    },
                    "201": {
                        "description": "created",
                        "content": {
                            "application/json": {}
                        }
                    },
                    "403": {
                        "description": "Forbidden",
                        "content": {
                            "application/json": {}
                        }
                    },
                    "422": {
                        "description": "Validation Error",
                        "content": {
                            "application/json": {}
                        }
                    }
                },
                "security": [
                    {
                        "bearer_token": []
                    }
                ]
            }
        },
        "/api/stock": {
            "get": {
                "tags": [
                    "Vehicle"
                ],
                "summary": "Stock Vehicle",
                "operationId": "stock",
                "responses": {
                    "200": {
                        "description": "Success",
                        "content": {
                            "application/json": {}
                        }
                    },
                    "403": {
                        "description": "Forbidden",
                        "content": {
                            "application/json": {}
                        }
                    },
                    "422": {
                        "description": "Validation Error",
                        "content": {
                            "application/json": {}
                        }
                    }
                },
                "security": [
                    {
                        "bearer_token": []
                    }
                ]
            }
        },
        "/api/sales": {
            "get": {
                "tags": [
                    "Vehicle"
                ],
                "summary": "Sales Vehicle",
                "operationId": "sales",
                "responses": {
                    "200": {
                        "description": "Success",
                        "content": {
                            "application/json": {}
                        }
                    },
                    "403": {
                        "description": "Forbidden",
                        "content": {
                            "application/json": {}
                        }
                    },
                    "422": {
                        "description": "Validation Error",
                        "content": {
                            "application/json": {}
                        }
                    }
                },
                "security": [
                    {
                        "bearer_token": []
                    }
                ]
            }
        },
        "/api/report": {
            "get": {
                "tags": [
                    "Vehicle"
                ],
                "summary": "Report Sales Vehicle",
                "operationId": "report",
                "responses": {
                    "200": {
                        "description": "Success",
                        "content": {
                            "application/json": {}
                        }
                    },
                    "403": {
                        "description": "Forbidden",
                        "content": {
                            "application/json": {}
                        }
                    },
                    "422": {
                        "description": "Validation Error",
                        "content": {
                            "application/json": {}
                        }
                    }
                },
                "security": [
                    {
                        "bearer_token": []
                    }
                ]
            }
        }
    },
    "components": {
        "securitySchemes": {
            "bearer_token": {
                "type": "apiKey",
                "description": "Enter token in format (Bearer <token>)",
                "name": "Authorization",
                "in": "header"
            }
        }
    }
}